{
    "authors": [
        "Robert Roland"
    ],
    "copyright": "Copyright © 2022, Robert Roland",
    "description": "Plaid kernel",
    "license": "BSD 3-clause",
    "name": "dplaid",
    "toolchainRequirements": {
        "dmd": "no",
        "gdc": "no",
        "ldc": ">=1.27.0"
    },
    "targetType": "executable",
    "targetName": "plaid",
    "buildOptions": [
        "betterC"
    ],
    "dflags-ldc": [
        "-Xcc=-nostartfiles",
        "-Xcc=-ffreestanding",
        "-Xcc=-nostdlib",
        "-defaultlib=",
        "-link-defaultlib-shared=false"
    ],
    "lflags": [
        "-nostdlib",
        "-lgcc"
    ],
    "buildTypes": {
        "debug": {
            "buildOptions": [
                "debugMode",
                "debugInfo"
            ]
        },
        "release": {
            "buildOptions": [
                "releaseMode",
                "optimize",
                "inline"
            ]
        }
    },
    "configurations": [
        {
            "name": "aarch64-raspi3",
            "targetType": "executable",
            "dflags": [
                "--gcc=aarch64-none-elf-gcc"
            ],
            "lflags": [
                "-Wl,-Tsource/board/raspi3/aarch64-raspi3.ld",
                "-Wl,build/source/arch/aarch64/vectors.o",
                "-Wl,build/source/arch/aarch64/start.o",
                "-Wl,build/source/arch/aarch64/irq.o",
                "-Wl,build/source/string/aarch64/memcpy.o"
            ],
            "versions": [
                "raspi3"
            ]
        }
    ]
}
